<?xml version="1.0" encoding="utf-8"?>
<!-- Generator: Adobe Illustrator 15.1.0, SVG Export Plug-In . SVG Version: 6.00 Build 0)  -->
<!DOCTYPE svg PUBLIC "-//W3C//DTD SVG 1.1//EN" "http://www.w3.org/Graphics/SVG/1.1/DTD/svg11.dtd">
<svg version="1.1" id="Capa_1" xmlns="http://www.w3.org/2000/svg" xmlns:xlink="http://www.w3.org/1999/xlink" x="0px" y="0px"
	 width="172px" height="34px" viewBox="0 0 172 34" enable-background="new 0 0 172 34" xml:space="preserve">
<g>
	<polygon fill="#DDDDDD" points="158.082,12.126 168.447,13.633 160.947,20.943 162.718,31.266 153.446,26.393 144.177,31.266 
		145.947,20.943 138.447,13.633 148.813,12.126 153.446,2.734 	"/>
	<polygon fill="#DDDDDD" points="145.947,20.944 144.176,31.267 153.447,26.394 153.447,2.734 148.812,12.125 138.447,13.633 	"/>
</g>
<g>
	<polygon fill="#DDDDDD" points="124.679,12.126 135.044,13.633 127.544,20.943 129.314,31.266 120.043,26.393 110.773,31.266 
		112.544,20.943 105.044,13.633 115.409,12.126 120.043,2.734 	"/>
	<polygon fill="#DDDDDD" points="112.544,20.944 110.772,31.267 120.044,26.394 120.044,2.734 115.408,12.125 105.044,13.633 	"/>
</g>
<g>
	<polygon fill="#DDDDDD" points="91.275,12.126 101.641,13.633 94.141,20.943 95.911,31.266 86.641,26.393 77.37,31.266 
		79.141,20.943 71.641,13.633 82.006,12.126 86.641,2.734 	"/>
	<polygon fill="#FCAE13" points="79.141,20.944 77.369,31.267 86.641,26.394 86.641,2.734 82.006,12.125 71.641,13.633 	"/>
</g>
<g>
	<polygon fill="#FCAE13" points="57.873,12.126 68.237,13.633 60.737,20.943 62.508,31.266 53.236,26.393 43.967,31.266 
		45.737,20.943 38.237,13.633 48.603,12.126 53.236,2.734 	"/>
	<polygon fill="#FCAE13" points="45.737,20.944 43.966,31.267 53.237,26.394 53.237,2.734 48.602,12.125 38.237,13.633 	"/>
</g>
<g>
	<polygon fill="#FCAE13" points="24.47,12.126 34.834,13.633 27.334,20.943 29.104,31.266 19.833,26.393 10.563,31.266 
		12.334,20.943 4.834,13.633 15.199,12.126 19.833,2.734 	"/>
	<polygon fill="#FCAE13" points="12.334,20.944 10.563,31.267 19.834,26.394 19.834,2.734 15.198,12.125 4.834,13.633 	"/>
</g>
</svg>
